Logistic Regression
…
We convert the dataframe into a tibble for compatibility with tidyverse.

wcgs <- wcgs %>% 
  as_tibble() %>%
  print(width = Inf)

## # A tibble: 3,154 × 13
##      age height weight   sdp   dbp  chol behave  cigs dibep chd   typechd 
##    <int>  <int>  <int> <int> <int> <int> <fct>  <int> <fct> <fct> <fct>   
##  1    49     73    150   110    76   225 A2        25 B     no    none    
##  2    42     70    160   154    84   177 A2        20 B     no    none    
##  3    42     69    160   110    78   181 B3         0 A     no    none    
##  4    41     68    152   124    78   132 B4        20 A     no    none    
##  5    59     70    150   144    86   255 B3        20 A     yes   infdeath
##  6    44     72    204   150    90   182 B4         0 A     no    none    
##  7    44     72    164   130    84   155 B4         0 A     no    none    
##  8    40     71    150   138    60   140 A2         0 B     no    none    
##  9    43     72    190   146    76   149 B3        25 A     no    none    
## 10    42     70    175   132    90   325 A2         0 B     no    none    
##    timechd arcus  
##      <int> <fct>  
##  1    1664 absent 
##  2    3071 present
##  3    3071 absent 
##  4    3064 absent 
##  5    1885 present
##  6    3102 absent 
##  7    3074 absent 
##  8    3071 absent 
##  9    3064 absent 
## 10    1032 present
## # … with 3,144 more rows
…
when \(\lambda = 0\), the regression coefficients are same as those from regular logistic regression.

If we vary \(\lambda\) from 0 to larger values, we will obtain intermediate models with lesser and lesser preditors. This way we are achieving continuous model selection.

For details of glmnet package, see the vignette at https://web.stanford.edu/~hastie/glmnet/glmnet_alpha.html

How do we choose \(\lambda\), which determines the model size? One natural idea is to split the data into a training set and a validation set. The training set is used to fit the logistic regression at different \(\lambda\) values. Then the validation set is used to evaluate and compare the performance of different models. We will choose the model that gives the best performance on the validation set.

First let’s remove cases with missing values

(wcgs <- wcgs %>% 
  select(-c(behave, typechd, timechd)) %>%
  drop_na())

## # A tibble: 3,140 × 11
##      age height weight   sdp   dbp  chol  cigs dibep chd   arcus     bmi
##    <int>  <int>  <int> <int> <int> <int> <int> <fct> <fct> <fct>   <dbl>
##  1    49     73    150   110    76   225    25 B     no    absent  1445.
##  2    42     70    160   154    84   177    20 B     no    present 1607.
##  3    42     69    160   110    78   181     0 A     no    absent  1630.
##  4    41     68    152   124    78   132    20 A     no    absent  1571.
##  5    59     70    150   144    86   255    20 A     yes   present 1506.
##  6    44     72    204   150    90   182     0 A     no    absent  1992.
##  7    44     72    164   130    84   155     0 A     no    absent  1601.
##  8    40     71    150   138    60   140     0 B     no    absent  1485.
##  9    43     72    190   146    76   149    25 A     no    absent  1855.
## 10    42     70    175   132    90   325     0 B     no    present 1758.
## # … with 3,130 more rows
…
