HW3 Due: Dec 10, 2021
…
## Rows: 4006 Columns: 14

## ── Column specification ────────────────────────────────────────────────────────
## Delimiter: ","
## chr  (4): Admin2, Province_State, Country_Region, Combined_Key
## dbl  (7): FIPS, Lat, Long_, Confirmed, Deaths, Incident_Rate, Case_Fatality_...
## lgl  (2): Recovered, Active
## dttm (1): Last_Update

## 
## ℹ Use `spec()` to retrieve the full column specification for this data.
## ℹ Specify the column types or set `show_col_types = FALSE` to quiet this message.

## # A tibble: 3,279 × 14
##     FIPS Admin2   Province_State Country_Region Last_Update           Lat Long_
##    <dbl> <chr>    <chr>          <chr>          <dttm>              <dbl> <dbl>
##  1  1001 Autauga  Alabama        US             2021-11-03 06:22:09  32.5 -86.6
##  2  1003 Baldwin  Alabama        US             2021-11-03 06:22:09  30.7 -87.7
##  3  1005 Barbour  Alabama        US             2021-11-03 06:22:09  31.9 -85.4
##  4  1007 Bibb     Alabama        US             2021-11-03 06:22:09  33.0 -87.1
##  5  1009 Blount   Alabama        US             2021-11-03 06:22:09  34.0 -86.6
##  6  1011 Bullock  Alabama        US             2021-11-03 06:22:09  32.1 -85.7
##  7  1013 Butler   Alabama        US             2021-11-03 06:22:09  31.8 -86.7
##  8  1015 Calhoun  Alabama        US             2021-11-03 06:22:09  33.8 -85.8
##  9  1017 Chambers Alabama        US             2021-11-03 06:22:09  32.9 -85.4
## 10  1019 Cherokee Alabama        US             2021-11-03 06:22:09  34.2 -85.6
##    Confirmed Deaths Recovered Active Combined_Key          Incident_Rate
##        <dbl>  <dbl> <lgl>     <lgl>  <chr>                         <dbl>
##  1     10271    148 NA        NA     Autauga, Alabama, US         18384.
##  2     37445    558 NA        NA     Baldwin, Alabama, US         16774.
##  3      3605     76 NA        NA     Barbour, Alabama, US         14603.
##  4      4283     89 NA        NA     Bibb, Alabama, US            19126.
##  5     10423    179 NA        NA     Blount, Alabama, US          18025.
##  6      1526     44 NA        NA     Bullock, Alabama, US         15107.
##  7      3365     96 NA        NA     Butler, Alabama, US          17303.
##  8     22341    497 NA        NA     Calhoun, Alabama, US         19666.
##  9      5787    144 NA        NA     Chambers, Alabama, US        17402.
## 10      3071     61 NA        NA     Cherokee, Alabama, US        11723.
##    Case_Fatality_Ratio
##                  <dbl>
##  1                1.44
##  2                1.49
##  3                2.11
##  4                2.08
##  5                1.72
##  6                2.88
##  7                2.85
##  8                2.22
##  9                2.49
## 10                1.99
## # … with 3,269 more rows
…
We want to exclude entries from American Samoa, Diamond Princess, Grand Princess, Guam, Northern Mariana Islands, Puerto Rico, Recovered, and Virgin Islands, and only consider counties from 50 states and DC.

county_count <- county_count %>%
  filter(!(province_state %in% c("American Samoa", "Diamond Princess", "Grand Princess", 
                                 "Recovered", "Guam", "Northern Mariana Islands", 
                                 "Puerto Rico", "Virgin Islands"))) %>%
  print(width = Inf)

## # A tibble: 3,192 × 14
##     fips admin2   province_state country_region last_update           lat long_
##    <dbl> <chr>    <chr>          <chr>          <dttm>              <dbl> <dbl>
##  1  1001 Autauga  Alabama        US             2021-11-03 06:22:09  32.5 -86.6
##  2  1003 Baldwin  Alabama        US             2021-11-03 06:22:09  30.7 -87.7
##  3  1005 Barbour  Alabama        US             2021-11-03 06:22:09  31.9 -85.4
##  4  1007 Bibb     Alabama        US             2021-11-03 06:22:09  33.0 -87.1
##  5  1009 Blount   Alabama        US             2021-11-03 06:22:09  34.0 -86.6
##  6  1011 Bullock  Alabama        US             2021-11-03 06:22:09  32.1 -85.7
##  7  1013 Butler   Alabama        US             2021-11-03 06:22:09  31.8 -86.7
##  8  1015 Calhoun  Alabama        US             2021-11-03 06:22:09  33.8 -85.8
##  9  1017 Chambers Alabama        US             2021-11-03 06:22:09  32.9 -85.4
## 10  1019 Cherokee Alabama        US             2021-11-03 06:22:09  34.2 -85.6
##    confirmed deaths recovered active combined_key          incident_rate
##        <dbl>  <dbl> <lgl>     <lgl>  <chr>                         <dbl>
##  1     10271    148 NA        NA     Autauga, Alabama, US         18384.
##  2     37445    558 NA        NA     Baldwin, Alabama, US         16774.
##  3      3605     76 NA        NA     Barbour, Alabama, US         14603.
##  4      4283     89 NA        NA     Bibb, Alabama, US            19126.
##  5     10423    179 NA        NA     Blount, Alabama, US          18025.
##  6      1526     44 NA        NA     Bullock, Alabama, US         15107.
##  7      3365     96 NA        NA     Butler, Alabama, US          17303.
##  8     22341    497 NA        NA     Calhoun, Alabama, US         19666.
##  9      5787    144 NA        NA     Chambers, Alabama, US        17402.
## 10      3071     61 NA        NA     Cherokee, Alabama, US        11723.
##    case_fatality_ratio
##                  <dbl>
##  1                1.44
##  2                1.49
##  3                2.11
##  4                2.08
##  5                1.72
##  6                2.88
##  7                2.85
##  8                2.22
##  9                2.49
## 10                1.99
## # … with 3,182 more rows
…
